{
  "count": 1292,
  "next": "https://pokeapi.co/api/v2/pokemon?offset=151&limit=151",
  "previous": null,
  "results": [
    { "name": "bulbasaur", "type": "grass/poison", "url": "https://pokeapi.co/api/v2/pokemon/1/" },
    { "name": "ivysaur", "type": "grass/poison", "url": "https://pokeapi.co/api/v2/pokemon/2/" },
    { "name": "venusaur", "type": "grass/poison", "url": "https://pokeapi.co/api/v2/pokemon/3/" },
  ]
}
